mH=125.09
ECM=13000
muF=31.2725
muR=125.09
mb=4.18
mZ=91.1876
PDFSet=PDF4LHC15_nnlo_mc
PDFMember=0
MCPrecision=0.0001


XS at N^0LO for the channel b ab 	= 0.453833 +- 1.15508e-06 pb +- 0.000254517 % 
XS at N^1LO for the channel b ab 	= 0.518607 +- 2.16612e-06 pb +- 0.000417681 % 
XS at N^2LO for the channel b ab 	= 0.534952 +- 3.06932e-06 pb +- 0.000573755 % 
XS at N^3LO for the channel b ab 	= 0.533913 +- 4.83501e-06 pb +- 0.00090558 % 
XS at N^0LO for the channel b g 	= 0 +- 0 pb +- nan % 
XS at N^1LO for the channel b g 	= 0.0141446 +- 7.4318e-06 pb +- 0.0525414 % 
XS at N^2LO for the channel b g 	= -0.0032476 +- 1.4719e-05 pb +- 0.453226 % 
XS at N^3LO for the channel b g 	= -0.0230357 +- 3.04581e-05 pb +- 0.132221 % 
XS at N^0LO for the channel b q 	= 0 +- 0 pb +- nan % 
XS at N^1LO for the channel b q 	= 0 +- 0 pb +- nan % 
XS at N^2LO for the channel b q 	= 0.00328383 +- 2.61771e-07 pb +- 0.00797152 % 
XS at N^3LO for the channel b q 	= 0.00487736 +- 5.19633e-07 pb +- 0.010654 % 
XS at N^0LO for the channel b qbar 	= 0 +- 0 pb +- nan % 
XS at N^1LO for the channel b qbar 	= 0 +- 0 pb +- nan % 
XS at N^2LO for the channel b qbar 	= 0.00328582 +- 2.61838e-07 pb +- 0.00796871 % 
XS at N^3LO for the channel b qbar 	= 0.00530078 +- 3.07019e-07 pb +- 0.00579196 % 
XS at N^0LO for the channel b b 	= 0 +- 0 pb +- nan % 
XS at N^1LO for the channel b b 	= 0 +- 0 pb +- nan % 
XS at N^2LO for the channel b b 	= 9.87003e-05 +- 1.60221e-08 pb +- 0.0162331 % 
XS at N^3LO for the channel b b 	= 0.000147312 +- 3.30709e-08 pb +- 0.0224496 % 
XS at N^0LO for the channel g g 	= 0 +- 0 pb +- nan % 
XS at N^1LO for the channel g g 	= 0 +- 0 pb +- nan % 
XS at N^2LO for the channel g g 	= 0.00556984 +- 3.80112e-06 pb +- 0.0682447 % 
XS at N^3LO for the channel g g 	= 0.00929526 +- 7.80362e-06 pb +- 0.0839526 % 
XS at N^0LO for the channel q qbar 	= 0 +- 0 pb +- nan % 
XS at N^1LO for the channel q qbar 	= 0 +- 0 pb +- nan % 
XS at N^2LO for the channel q qbar 	= 0.000113489 +- 5.97029e-09 pb +- 0.00526067 % 
XS at N^3LO for the channel q qbar 	= 0.000108982 +- 9.55133e-09 pb +- 0.00876413 % 
XS at N^0LO for the channel q g 	= 0 +- 0 pb +- nan % 
XS at N^1LO for the channel q g 	= 0 +- 0 pb +- nan % 
XS at N^2LO for the channel q g 	= 0 +- 0 pb +- nan % 
XS at N^3LO for the channel q g 	= 0.000803928 +- 4.0186e-07 pb +- 0.049987 % 

xs at N0LO 	=0.453833 +- 1.15508e-06 pb +- 0.000254517 % 
xs at N1LO 	=0.532751 +- 7.74104e-06 pb +- 0.00145303 % 
xs at N2LO 	=0.544056 +- 1.55131e-05 pb +- 0.00285137 % 
xs at N3LO 	=0.53141 +- 3.18197e-05 pb +- 0.00598779 % 

